<?xml version="1.0" encoding="utf-8"?>
<COLLADA xmlns="http://www.collada.org/2005/11/COLLADASchema" version="1.4.1" xmlns:xsi="http://www.w3.org/2001/XMLSchema-instance">
  <asset>
    <contributor>
      <author>Blender User</author>
      <authoring_tool>Blender 2.82.7 commit date:2020-02-12, commit time:16:20, hash:77d23b0bd76f</authoring_tool>
    </contributor>
    <created>2020-03-25T10:17:54</created>
    <modified>2020-03-25T10:17:54</modified>
    <unit name="meter" meter="1"/>
    <up_axis>Z_UP</up_axis>
  </asset>
  <library_lights>
    <light id="Sun-light" name="Sun">
      <technique_common>
        <directional>
          <color sid="color">1 0.3 0.1</color>
        </directional>
      </technique_common>
      <extra>
        <technique profile="blender">
          <type sid="type" type="int">1</type>
          <flag sid="flag" type="int">0</flag>
          <mode sid="mode" type="int">1</mode>
          <gamma sid="blender_gamma" type="float">1</gamma>
          <red sid="red" type="float">1</red>
          <green sid="green" type="float">0.3</green>
          <blue sid="blue" type="float">0.1</blue>
          <shadow_r sid="blender_shadow_r" type="float">0</shadow_r>
          <shadow_g sid="blender_shadow_g" type="float">0</shadow_g>
          <shadow_b sid="blender_shadow_b" type="float">0</shadow_b>
          <energy sid="blender_energy" type="float">1</energy>
          <dist sid="blender_dist" type="float">12.5</dist>
          <spotsize sid="spotsize" type="float">45</spotsize>
          <spotblend sid="spotblend" type="float">0.15</spotblend>
          <att1 sid="att1" type="float">0</att1>
          <att2 sid="att2" type="float">1</att2>
          <falloff_type sid="falloff_type" type="int">2</falloff_type>
          <clipsta sid="clipsta" type="float">0.04999995</clipsta>
          <clipend sid="clipend" type="float">40</clipend>
          <bias sid="bias" type="float">1</bias>
          <soft sid="soft" type="float">3</soft>
          <bufsize sid="bufsize" type="int">512</bufsize>
          <samp sid="samp" type="int">3</samp>
          <buffers sid="buffers" type="int">1</buffers>
          <area_shape sid="area_shape" type="int">0</area_shape>
          <area_size sid="area_size" type="float">0.125</area_size>
          <area_sizey sid="area_sizey" type="float">0.125</area_sizey>
          <area_sizez sid="area_sizez" type="float">0.125</area_sizez>
        </technique>
      </extra>
    </light>
  </library_lights>
  <library_effects>
    <effect id="Color_D09__001-effect">
      <profile_COMMON>
        <technique sid="common">
          <lambert>
            <emission>
              <color sid="emission">0 0 0 1</color>
            </emission>
            <diffuse>
              <color sid="diffuse">0.64 0.5741177 0.3827451 1</color>
            </diffuse>
            <index_of_refraction>
              <float sid="ior">1</float>
            </index_of_refraction>
          </lambert>
        </technique>
      </profile_COMMON>
    </effect>
    <effect id="material_001-effect">
      <profile_COMMON>
        <technique sid="common">
          <lambert>
            <emission>
              <color sid="emission">0 0 0 1</color>
            </emission>
            <diffuse>
              <color sid="diffuse">0.8 0.8 0.8 1</color>
            </diffuse>
            <index_of_refraction>
              <float sid="ior">1</float>
            </index_of_refraction>
          </lambert>
        </technique>
      </profile_COMMON>
    </effect>
    <effect id="Color_004__001-effect">
      <profile_COMMON>
        <technique sid="common">
          <lambert>
            <emission>
              <color sid="emission">0 0 0 1</color>
            </emission>
            <diffuse>
              <color sid="diffuse">0.4454902 0.4454902 0.4454902 1</color>
            </diffuse>
            <index_of_refraction>
              <float sid="ior">1</float>
            </index_of_refraction>
          </lambert>
        </technique>
      </profile_COMMON>
    </effect>
  </library_effects>
  <library_images/>
  <library_materials>
    <material id="Color_D09__001-material" name="Color_D09__001">
      <instance_effect url="#Color_D09__001-effect"/>
    </material>
    <material id="material_001-material" name="material_001">
      <instance_effect url="#material_001-effect"/>
    </material>
    <material id="Color_004__001-material" name="Color_004__001">
      <instance_effect url="#Color_004__001-effect"/>
    </material>
  </library_materials>
  <library_geometries>
    <geometry id="ID50_001-mesh" name="ID50.001">
      <mesh>
        <source id="ID50_001-mesh-positions">
          <float_array id="ID50_001-mesh-positions-array" count="480">3970.516 475.0279 354.3307 4133.858 0 356.3278 3380.096 482.8587 340.0788 4133.858 581.0428 361.0032 3380.096 482.8587 354.3308 2769.453 490.9575 325.3386 4014.819 975.0999 354.3307 2769.453 490.9575 354.3308 2772.109 1014.162 354.3308 3392.937 1069.927 354.3308 2772.109 1014.162 343.2441 3209.382 1681.68 393.7008 3209.382 1681.68 354.3308 2577.882 1521.514 393.7008 2577.882 1521.514 354.3308 2484.494 1846.035 393.7008 3322.108 1254.07 354.3308 2677.273 1176.125 347.2717 2185.822 1243.687 354.3308 2677.273 1176.125 354.3308 2076.939 1700.305 354.3308 2076.939 1700.305 337.4764 2185.822 1243.687 304.8504 1116.697 993.4547 236.2205 683.2091 1950.648 236.2205 930.0614 1405.568 275.5906 683.2091 1950.648 276.3745 137.7358 2050.177 251.4134 683.2091 1950.648 314.9607 988.1641 2404.485 330.1536 249.5285 1769.966 236.2205 641.4996 795.1741 214.8213 879.0983 894.3143 227.1339 641.4996 795.174 236.2205 1515.765 1159.97 275.5906 1116.697 993.4547 275.5906 930.0614 1405.568 314.9607 690.8917 3149.606 370.5537 0 2003.742 241.4489 1316.231 1076.712 261.6497 1515.765 1159.97 269.3898 1381.904 1566.865 275.5906 1381.904 1566.865 314.9607 1297.364 336.7231 236.2205 890.3654 199.509 206.7762 298.5908 0 163.9642 890.3654 199.509 236.2205 744.1544 616.6599 214.8213 1701.189 472.8673 275.5906 744.1544 616.6599 236.2205 1104.95 796.7847 236.2205 924.5521 706.7222 226.8544 1297.364 336.7231 275.5906 0 365.7781 160.9855 1832.564 0 276.6708 1104.95 796.7847 275.5906 1349.599 871.5754 261.6497 2125.314 476.7933 275.5906 2125.314 476.7933 314.9607 2125.314 476.7933 294.2716 2595.03 481.1413 314.9607 2106.142 1065.303 314.9607 0 2003.742 0 0 1685.841 0 0 1685.841 218.1684 867.0401 3149.606 0 1837.673 3149.606 0 0 578.901 0 0 578.901 168.412 0 2395.416 270.1321 867.0401 3149.606 366.6979 1832.564 0 0 4133.858 1156.808 0 0 2395.416 0 690.8917 3149.606 0 0 3149.606 0 0 3149.606 329.0842 4133.858 1977.238 0 2808.306 3149.606 0 2557.76 0 0 4133.858 947.0339 0 1055.078 0 0 1055.078 0 214.82 0 365.7781 0 4133.858 1977.238 382.7049 4133.858 2631.733 0 3331.735 3149.606 0 2557.76 0 308.5461 4133.858 581.0428 0 298.5908 0 0 0 0 0 0 0 146.3818 3522.752 3149.606 0 2735.305 0 0 4133.858 0 0 4133.858 2915.597 0 4133.858 3149.606 456.5184 4133.858 3149.606 0 1599.236 2337.053 354.3308 1599.236 2337.053 334.5134 2040.97 2515.083 354.3308 1955.497 2480.635 354.3308 1830.858 1774.832 314.9607 1830.858 1774.832 354.3308 2040.97 2515.083 359.0852 1247.734 2195.388 314.9607 1599.236 2337.053 314.9607 1471.319 1634.965 314.9607 2478.722 2008.402 374.0158 2040.97 2515.083 393.7008 1948.674 2803.152 375.3627 2808.306 3149.606 423.1806 1837.673 3149.606 394.9393 2270.392 1932.527 393.7008 2428.402 2671.228 380.6366 1471.319 1634.965 284.5748 2687.053 2084.276 393.7008 2663.26 2765.882 393.7008 2428.402 2671.228 393.7008 3331.735 3149.606 438.4102 2877.12 2852.073 393.7008 2877.12 2852.073 405.597 2877.12 2852.073 433.0709 3671.27 2615.362 433.0709 3371.024 3051.129 433.0709 3141.573 2271.57 393.7008 3141.573 2271.57 433.0709 3522.752 3149.606 439.2689 2050.625 1853.68 345.2363 1952.833 1280.784 293.9197 2280.717 1773.17 349.0768 2106.142 1065.303 275.5906 2270.392 1932.527 354.3308 1651.088 1704.899 305.3032 1594.247 946.3662 275.5906 2590.358 1026.547 314.9607 2484.494 1846.035 354.3308 1711.92 1212.532 278.8764 2687.053 2084.276 387.9449 2795.919 1957.392 383.9528 1099.957 2124.274 314.9607 3107.344 2068.749 393.7008 3451.796 1251.171 354.3308 2735.305 0 307.4993 3406.421 2443.466 422.252 3158.363 1875.214 380.9016 1135.941 2475.6 330.1536 3301.579 1928.547 382.8425 4133.858 1156.808 358.5291 3249.111 2165.145 393.7008 4133.858 947.0339 359.5978 4133.858 2915.597 451.9674 3762.699 2390.838 393.7008 4133.858 2631.733 408.8624 3354.048 1691.95 393.7008 3921.147 1839.181 393.7008 3921.147 1839.181 374.0158 3354.048 1691.95 354.3308 3921.147 1839.181 354.3308 4041.783 1165.789 354.3308</float_array>
          <technique_common>
            <accessor source="#ID50_001-mesh-positions-array" count="160" stride="3">
              <param name="X" type="float"/>
              <param name="Y" type="float"/>
              <param name="Z" type="float"/>
            </accessor>
          </technique_common>
        </source>
        <source id="ID50_001-mesh-normals">
          <float_array id="ID50_001-mesh-normals-array" count="687">-0.08946394 0.9959901 0 -0.02418583 -0.004113554 0.999699 -0.01326185 -0.9999122 0 -0.03488469 -0.02083265 0.9991742 -0.03560376 -0.008041203 0.9993337 -0.01326161 -0.9999122 0 1.49295e-7 0 1 -0.02457594 -0.03459358 0.9990993 -0.0433008 0.003836154 0.9990548 -0.9999871 0.005075454 0 0 0 1 0.9669652 0.2549084 -1.82983e-5 0 0 1 0.9669651 0.2549089 0 0.2458435 -0.9693096 0 -0.3366952 0.9416137 0 -0.961 -0.2765489 0 0 0 1 -0.3366953 0.9416137 0 0 0 1 0 0 1 0.1200021 -0.9927737 0 -0.3366944 0.9416141 0 0 0 1 -0.1361935 -0.9906823 0 -0.9727274 -0.2319516 0 0.3845822 -0.9230908 0 0 0 1 -0.9109393 -0.4125406 0 -0.05973339 -0.07778918 0.9951788 -0.927801 -0.3730754 0 0.3850823 -0.9228823 0 -0.910939 -0.412541 0 -0.9109396 -0.4125397 0 -0.05973374 -0.07778942 0.9951788 -0.05973362 -0.0777893 0.9951788 -0.04747533 -0.07295429 0.9962047 -0.05703997 -0.04483091 0.9973649 0.3850803 -0.9228832 0 0 0 1 0.3850806 -0.9228829 0 0 0 1 -0.3845793 0.9230921 0 0.3361967 -0.9417918 0 -0.05973374 -0.07778924 0.9951788 -0.04747503 -0.07295435 0.9962047 0.385083 -0.922882 0 0.9499164 0.3125045 0 0.8923413 0.4513614 0 -0.06706684 -0.01514726 0.9976335 0.319469 -0.9475967 0 -0.06706708 -0.01514744 0.9976335 -0.07930022 -0.006294012 0.996831 -0.9437114 -0.3307699 0 -0.05873644 -0.03982424 0.9974789 -0.08946424 -0.02258092 0.995734 -0.4466719 0.8946979 0 -0.9225623 -0.3858485 0 -0.0587362 -0.03982436 0.9974789 0.3194696 -0.9475966 0 -0.04390943 -0.009917199 0.9989863 0 0 1 -0.29235 0.9563115 0 -0.04390943 -0.009917259 0.9989864 -0.009256243 0.9999572 0 0.009256303 -0.9999573 0 -0.9994698 -0.032561 0 -0.9994698 -0.03256028 0 0 0 1 0.07978379 0.9968122 0 -0.3738073 0.9275063 0 -0.02902108 -0.06565767 0.9974201 -0.924609 -0.3809176 0 -0.02901893 -0.06565749 0.9974202 -0.02902084 -0.06565749 0.9974201 -0.9246093 -0.3809169 0 0.3377022 -0.941253 0 0.373812 -0.9275046 0 0.3377002 -0.9412537 -2.94338e-5 -0.9304476 -0.366425 0 -0.0290209 -0.06565785 0.9974201 0.3738107 -0.927505 0 -0.02902084 -0.06565773 0.9974201 0 0 1 0.3422152 -0.9396217 0 -0.930446 -0.366429 0 -0.3738088 0.9275058 0 -0.02902066 -0.06565737 0.9974201 -0.02902072 -0.06565779 0.9974201 -0.9288101 -0.3705561 0 0.3625494 -0.9319646 -5.03257e-5 0.342213 -0.9396224 -3.58002e-5 0 0 1 -0.3738097 0.9275054 0 -0.02902144 -0.06565749 0.9974201 0.3625537 -0.9319629 0 0.342207 -0.9396246 0 1.92506e-7 0 1 -0.02902096 -0.06565696 0.9974202 0.3738089 -0.9275058 0 0.3809919 -0.9245784 0 -0.373809 0.9275058 0 -0.004488289 -0.05592381 0.998425 -0.910019 -0.4145666 0 0 0 1 -0.9100188 -0.4145669 0 -0.02820992 -0.01943695 0.999413 0.544422 -0.8388116 -1.82964e-5 0.5444205 -0.8388124 0 -0.02820998 -0.01943659 0.9994131 -0.01489657 -0.03992956 0.9990915 0.9611404 0.2760602 0 -0.02170962 -0.02944743 0.9993305 0.2512905 -0.9679118 0 -0.04921418 -0.03799253 0.9980654 -0.9762812 -0.2165067 0 -0.9762822 -0.2165021 5.34401e-5 -0.9843295 -0.1763394 0 0 0 1 0 0 -1 -1 0 0 0 1 0 0 -1 0 1 0 0 1 6.50431e-7 0 -0.1116966 -0.0693193 0.9913217 -0.1204478 -0.09929662 0.9877411 -0.02184551 -0.05425554 0.9982881 -0.055718 -0.05621176 0.996863 -0.04404526 -0.03577083 0.998389 -0.03383463 -0.05086284 0.9981324 -0.06742894 -0.1320941 0.9889411 -0.01366794 -0.0338335 0.999334 -0.04551231 -0.05914628 0.9972114 -0.03171217 -0.1070914 0.9937433 -0.09012228 -0.1218762 0.9884454 -0.049259 -0.1219356 0.991315 -0.08954566 -0.06440877 0.993898 0.003196358 -0.01375675 0.9999003 -0.1055939 -0.1509595 0.9828841 -0.02224487 -0.1211057 0.9923904 -0.03876924 -0.03555214 0.9986156 -0.05104041 0.01023685 0.9986441 -0.1605546 -0.1183796 0.9799023 -0.06380885 -0.08602929 0.9942472 -0.07083356 -0.03849261 0.9967452 -0.05910259 0.007262527 0.9982255 -0.01483356 -0.03353643 0.9993275 -0.1538531 -0.001317918 0.9880928 -0.01532655 -0.04457771 0.9988884 -0.03355395 -0.08729273 0.9956175 -0.03630119 -0.005904734 0.9993235 -0.01046001 -0.004023373 0.9999373 -0.05746066 -0.03385478 0.9977736 -0.01360893 0.002296686 0.9999048 0.02186161 -0.04542887 0.9987283 -0.1184798 -0.01927214 0.9927695 -3.29979e-7 0 1 -0.05890053 -0.008745789 0.9982256 0.02186149 -0.04542845 0.9987284 -0.1052841 0.006288588 0.9944224 -3.13329e-7 0 1 1.98129e-7 0 1 0.005891561 -0.03672039 0.9993082 -0.06482803 -0.0655061 0.9957441 0.03804534 -0.0559529 0.9977083 0.02186173 -0.04542863 0.9987283 -0.03919088 0.002340793 0.999229 0.008363306 -0.1178091 0.9930011 -0.04492968 0.006352722 0.99897 0.0593211 -0.1349915 0.9890695 0.003264904 -0.0451225 0.9989761 -0.04560166 -0.01253753 0.9988811 0.03391826 -0.1271566 0.9913026 -0.04300481 0.005089759 0.999062 0.0569601 -0.1498857 0.9870612 -0.05873245 -0.0157181 0.9981501 0.0569601 -0.1498863 0.9870612 -0.04174458 -0.02400523 0.9988399 -0.06044948 -0.03476154 0.9975658 -0.01326155 -0.9999121 0 2.11435e-7 0 1 -0.04330015 0.003836393 0.9990547 -0.9999871 0.00507611 0 -1.39604e-7 0 1 0.2458438 -0.9693095 0 -0.9610001 -0.2765481 0 -0.336691 0.9416152 0 -0.1361936 -0.9906823 0 -0.9727273 -0.2319517 0 -0.05973356 -0.07778954 0.9951788 -0.9109392 -0.4125406 -6.04315e-6 -0.9109392 -0.4125406 0 -0.05973362 -0.0777893 0.9951788 -0.0474748 -0.07295399 0.9962047 -0.05704015 -0.04483103 0.9973648 0 0 1 0.3361974 -0.9417916 0 0.3850829 -0.9228821 5.18392e-6 -0.9437116 -0.3307695 0 0 0 1 -0.0587362 -0.03982442 0.9974789 -0.4466707 0.8946985 0 -0.04390943 -0.009917199 0.9989863 -0.2923506 0.9563113 -1.75245e-5 0 0 1 -0.9994699 -0.03255927 0 -0.9246091 -0.3809177 0 0 0 1 -0.02902078 -0.06565761 0.9974201 -0.9304463 -0.3664282 0 -0.02902072 -0.06565773 0.9974201 -0.3738074 0.9275065 0 -0.02902013 -0.06565791 0.9974202 0 0 1 -0.02902078 -0.06565749 0.9974202 0 0 1 -0.9100187 -0.4145674 0 -0.02821028 -0.01943695 0.999413 -0.01489645 -0.03992956 0.9990915 1 -3.31414e-6 0 1 2.33559e-7 0 1 2.43575e-7 0 1 0 0 0.02186155 -0.04542869 0.9987283 0 -4.70488e-7 1 0.02186179 -0.04542857 0.9987284 0.0569601 -0.1498857 0.9870613 -0.06044948 -0.0347613 0.9975659</float_array>
          <technique_common>
            <accessor source="#ID50_001-mesh-normals-array" count="229" stride="3">
              <param name="X" type="float"/>
              <param name="Y" type="float"/>
              <param name="Z" type="float"/>
            </accessor>
          </technique_common>
        </source>
        <vertices id="ID50_001-mesh-vertices">
          <input semantic="POSITION" source="#ID50_001-mesh-positions"/>
        </vertices>
        <triangles material="Color_D09__001-material" count="178">
          <input semantic="VERTEX" source="#ID50_001-mesh-vertices" offset="0"/>
          <input semantic="NORMAL" source="#ID50_001-mesh-normals" offset="1"/>
          <p>8 0 9 0 10 0 0 1 2 1 1 1 4 2 2 2 0 2 2 3 143 3 1 3 1 4 3 4 0 4 7 5 2 5 4 5 4 6 6 6 9 6 143 7 2 7 5 7 3 8 6 8 0 8 10 9 7 9 8 9 4 10 8 10 7 10 141 11 11 11 145 11 11 12 15 12 13 12 12 13 145 13 11 13 11 14 14 14 12 14 141 15 139 15 15 15 13 16 136 16 14 16 12 17 19 17 16 17 136 18 15 18 139 18 136 19 20 19 14 19 18 20 19 20 14 20 19 21 17 21 16 21 20 22 130 22 21 22 20 23 18 23 14 23 18 24 17 24 19 24 21 25 18 25 20 25 30 26 24 26 26 26 33 27 24 27 30 27 25 28 26 28 24 28 26 29 27 29 30 29 33 30 30 30 31 30 23 31 33 31 32 31 25 32 23 32 35 32 36 33 26 33 25 33 140 34 29 34 26 34 29 35 69 35 27 35 38 36 30 36 27 36 64 37 31 37 30 37 31 38 32 38 33 38 35 39 41 39 25 39 23 40 39 40 35 40 36 41 140 41 28 41 28 42 140 42 26 42 42 43 25 43 41 43 76 44 69 44 37 44 69 45 38 45 27 45 34 46 39 46 40 46 34 47 40 47 41 47 140 48 42 48 41 48 43 49 44 49 82 49 46 50 44 50 43 50 44 51 45 51 82 51 43 52 82 52 54 52 47 53 46 53 49 53 43 20 49 20 46 20 47 54 45 54 44 54 48 55 43 55 54 55 49 56 51 56 47 56 52 57 50 57 43 57 91 58 45 58 53 58 52 59 43 59 48 59 54 60 59 60 48 60 52 61 134 61 55 61 55 62 56 62 50 62 60 63 59 63 87 63 57 64 48 64 59 64 134 20 57 20 131 20 58 65 59 65 60 65 57 66 59 66 131 66 61 67 59 67 58 67 58 68 135 68 61 68 61 69 135 69 131 69 98 70 101 70 99 70 98 20 103 20 101 20 99 71 101 71 110 71 99 72 103 72 98 72 101 20 132 20 100 20 104 73 110 73 101 73 99 74 146 74 105 74 106 75 102 75 99 75 102 76 128 76 103 76 101 77 100 77 104 77 132 78 103 78 128 78 132 79 104 79 100 79 104 80 114 80 110 80 105 81 106 81 99 81 146 82 112 82 70 82 107 83 106 83 105 83 132 84 108 84 113 84 109 85 104 85 113 85 109 86 114 86 104 86 114 87 111 87 110 87 111 88 112 88 110 88 107 89 105 89 115 89 102 90 107 90 133 90 116 91 113 91 108 91 113 92 118 92 109 92 118 93 117 93 114 93 121 94 111 94 117 94 115 95 133 95 107 95 116 96 108 96 138 96 116 97 117 97 118 97 119 98 121 98 124 98 117 99 120 99 121 99 116 100 138 100 125 100 120 20 117 20 125 20 122 101 124 101 121 101 124 102 127 102 119 102 120 103 125 103 121 103 126 104 124 104 122 104 121 105 126 105 122 105 123 106 127 106 124 106 123 107 126 107 144 107 125 108 144 108 126 108 96 109 127 109 151 109 152 110 84 110 153 110 155 111 156 111 152 111 156 112 148 112 84 112 154 113 156 113 155 113 155 20 149 20 154 20 148 114 156 114 159 114 157 115 154 115 147 115 158 113 156 113 157 113 149 116 147 116 154 116 158 117 159 117 156 117 142 118 158 118 157 118 7 180 5 180 2 180 4 181 0 181 6 181 3 182 150 182 6 182 10 183 5 183 7 183 4 184 9 184 8 184 11 20 141 20 15 20 11 185 13 185 14 185 13 186 15 186 136 186 12 20 14 20 19 20 20 187 136 187 130 187 18 188 22 188 17 188 21 189 22 189 18 189 33 20 23 20 24 20 26 190 29 190 27 190 25 191 24 191 23 191 36 192 28 192 26 192 29 193 37 193 69 193 38 194 64 194 30 194 64 195 68 195 31 195 35 196 34 196 41 196 36 20 42 20 140 20 42 197 36 197 25 197 34 198 35 198 39 198 47 199 44 199 46 199 43 200 50 200 49 200 47 201 53 201 45 201 49 202 50 202 51 202 52 57 55 57 50 57 54 203 87 203 59 203 52 20 48 20 134 20 55 204 134 204 56 204 134 205 48 205 57 205 61 206 131 206 59 206 58 20 60 20 135 20 99 207 102 207 103 207 101 208 103 208 132 208 99 209 110 209 146 209 132 210 113 210 104 210 146 211 110 211 112 211 107 20 102 20 106 20 109 212 118 212 114 212 114 213 117 213 111 213 113 20 116 20 118 20 116 214 125 214 117 214 119 215 111 215 121 215 126 216 123 216 124 216 121 217 125 217 126 217 123 218 151 218 127 218 152 219 156 219 84 219 154 113 157 113 156 113 155 20 152 20 149 20 142 20 159 20 158 20</p>
        </triangles>
        <triangles material="material_001-material" count="76">
          <input semantic="VERTEX" source="#ID50_001-mesh-vertices" offset="0"/>
          <input semantic="NORMAL" source="#ID50_001-mesh-normals" offset="1"/>
          <p>72 119 78 119 77 119 79 119 72 119 80 119 77 119 86 119 85 119 62 120 64 120 38 120 65 119 63 119 62 119 63 120 68 120 64 120 73 120 38 120 69 120 66 121 70 121 112 121 71 119 66 119 72 119 73 119 65 119 62 119 67 119 71 119 81 119 67 120 53 120 68 120 75 120 69 120 76 120 74 121 70 121 65 121 78 121 112 121 111 121 75 119 74 119 73 119 71 122 82 122 81 122 89 119 67 119 81 119 91 120 83 120 90 120 76 121 74 121 75 121 86 121 111 121 119 121 148 123 77 123 84 123 79 122 54 122 71 122 148 123 80 123 72 123 79 119 88 119 93 119 81 122 45 122 89 122 90 119 83 119 89 119 89 122 91 122 90 122 92 121 119 121 127 121 85 123 84 123 77 123 92 119 85 119 86 119 79 122 143 122 87 122 88 124 150 124 3 124 94 119 93 119 88 119 97 121 127 121 96 121 95 123 153 123 85 123 97 119 95 119 92 119 143 122 94 122 1 122 88 123 1 123 94 123 151 123 97 123 96 123 72 119 66 119 78 119 79 119 71 119 72 119 77 119 78 119 86 119 62 120 63 120 64 120 65 119 66 119 63 119 63 120 67 120 68 120 73 120 62 120 38 120 66 121 65 121 70 121 71 119 63 119 66 119 73 119 74 119 65 119 67 119 63 119 71 119 67 120 83 120 53 120 75 120 73 120 69 120 74 121 37 121 70 121 78 121 66 121 112 121 71 122 54 122 82 122 89 119 83 119 67 119 91 120 53 120 83 120 76 121 37 121 74 121 86 121 78 121 111 121 148 123 72 123 77 123 79 122 87 122 54 122 148 220 150 220 80 220 79 119 80 119 88 119 81 122 82 122 45 122 89 122 45 122 91 122 92 121 86 121 119 121 85 221 153 221 84 221 92 119 95 119 85 119 79 122 93 122 143 122 88 123 80 123 150 123 97 121 92 121 127 121 95 222 151 222 153 222 143 122 93 122 94 122 88 223 3 223 1 223 151 123 95 123 97 123</p>
        </triangles>
        <triangles material="Color_004__001-material" count="62">
          <input semantic="VERTEX" source="#ID50_001-mesh-vertices" offset="0"/>
          <input semantic="NORMAL" source="#ID50_001-mesh-normals" offset="1"/>
          <p>102 125 21 125 128 125 102 126 22 126 21 126 132 127 128 127 21 127 102 128 129 128 22 128 21 129 130 129 132 129 129 130 102 130 133 130 22 131 129 131 131 131 136 132 132 132 130 132 133 133 137 133 129 133 129 134 137 134 131 134 135 135 22 135 131 135 132 136 136 136 108 136 115 137 137 137 133 137 134 138 131 138 137 138 22 139 135 139 17 139 138 140 108 140 136 140 137 141 115 141 40 141 137 142 40 142 134 142 10 143 17 143 135 143 136 144 139 144 138 144 40 145 115 145 41 145 134 146 40 146 56 146 10 147 9 147 17 147 135 148 60 148 10 148 141 149 138 149 139 149 115 150 140 150 41 150 39 151 56 151 40 151 16 152 17 152 9 152 5 153 10 153 60 153 138 154 141 154 125 154 140 155 115 155 105 155 23 156 56 156 39 156 142 157 16 157 9 157 87 158 5 158 60 158 149 20 125 20 141 20 29 159 105 159 146 159 56 160 23 160 50 160 157 161 16 161 142 161 6 162 142 162 9 162 87 163 143 163 5 163 149 164 144 164 125 164 141 165 145 165 149 165 70 166 29 166 146 166 32 167 50 167 23 167 157 168 147 168 12 168 6 169 148 169 159 169 152 170 144 170 149 170 145 171 147 171 149 171 51 172 50 172 32 172 147 173 145 173 12 173 148 174 6 174 150 174 144 175 152 175 123 175 32 176 47 176 51 176 123 177 153 177 151 177 47 178 32 178 31 178 68 179 47 179 31 179 29 224 140 224 105 224 157 20 12 20 16 20 6 225 159 225 142 225 70 226 37 226 29 226 123 227 152 227 153 227 68 228 53 228 47 228</p>
        </triangles>
      </mesh>
    </geometry>
  </library_geometries>
  <library_visual_scenes>
    <visual_scene id="Scene" name="Scene">
      <node id="SketchUp_007" name="SketchUp_007" type="NODE">
        <matrix sid="transform">0.0254 0 0 0 0 0.0254 0 0 0 0 0.0254 -6 0 0 0 1</matrix>
        <instance_geometry url="#ID50_001-mesh" name="SketchUp_007">
          <bind_material>
            <technique_common>
              <instance_material symbol="Color_D09__001-material" target="#Color_D09__001-material"/>
              <instance_material symbol="material_001-material" target="#material_001-material"/>
              <instance_material symbol="Color_004__001-material" target="#Color_004__001-material"/>
            </technique_common>
          </bind_material>
        </instance_geometry>
      </node>
      <node id="Sun" name="Sun" type="NODE">
        <matrix sid="transform">0.06218376 -0.5385064 -0.8403238 0 0.03974069 0.8426214 -0.537038 0 0.9972732 -1.16321e-9 0.07379798 0 0 0 0 1</matrix>
        <instance_light url="#Sun-light"/>
      </node>
    </visual_scene>
  </library_visual_scenes>
  <scene>
    <instance_visual_scene url="#Scene"/>
  </scene>
</COLLADA>