  0
SECTION
  2
HEADER
  9
$ACADVER
  1
AC1009
  9
$INSBASE
 10
0.0
 20
0.0
 30
0.0
  9
$EXTMIN
 10
2.9438451379795501
 20
1.984189990447017
 30
0.0
  9
$EXTMAX
 10
94.445579525188592
 20
86.380399588226624
 30
11.0
  9
$LIMMIN
 10
0.0
 20
0.0
  9
$LIMMAX
 10
12.0
 20
9.0
  9
$ORTHOMODE
 70
     0
  9
$REGENMODE
 70
     1
  9
$FILLMODE
 70
     1
  9
$QTEXTMODE
 70
     0
  9
$MIRRTEXT
 70
     0
  9
$DRAGMODE
 70
     2
  9
$LTSCALE
 40
1.0
  9
$OSMODE
 70
     9
  9
$ATTMODE
 70
     1
  9
$TEXTSIZE
 40
0.2
  9
$TRACEWID
 40
0.05
  9
$TEXTSTYLE
  7
STANDARD
  9
$CLAYER
  8
0
  9
$CELTYPE
  6
CONTINUOUS
  9
$CECOLOR
 62
   256
  9
$DIMSCALE
 40
1.0
  9
$DIMASZ
 40
0.18
  9
$DIMEXO
 40
0.0625
  9
$DIMDLI
 40
0.38
  9
$DIMRND
 40
0.0
  9
$DIMDLE
 40
0.0
  9
$DIMEXE
 40
0.18
  9
$DIMTP
 40
0.0
  9
$DIMTM
 40
0.0
  9
$DIMTXT
 40
0.18
  9
$DIMCEN
 40
0.09
  9
$DIMTSZ
 40
0.0
  9
$DIMTOL
 70
     0
  9
$DIMLIM
 70
     0
  9
$DIMTIH
 70
     1
  9
$DIMTOH
 70
     1
  9
$DIMSE1
 70
     0
  9
$DIMSE2
 70
     0
  9
$DIMTAD
 70
     0
  9
$DIMZIN
 70
     0
  9
$DIMBLK
  1

  9
$DIMASO
 70
     1
  9
$DIMSHO
 70
     1
  9
$DIMPOST
  1

  9
$DIMAPOST
  1

  9
$DIMALT
 70
     0
  9
$DIMALTD
 70
     2
  9
$DIMALTF
 40
25.399999999999999
  9
$DIMLFAC
 40
1.0
  9
$DIMTOFL
 70
     0
  9
$DIMTVP
 40
0.0
  9
$DIMTIX
 70
     0
  9
$DIMSOXD
 70
     0
  9
$DIMSAH
 70
     0
  9
$DIMBLK1
  1

  9
$DIMBLK2
  1

  9
$DIMSTYLE
  2
STANDARD
  9
$DIMCLRD
 70
     0
  9
$DIMCLRE
 70
     0
  9
$DIMCLRT
 70
     0
  9
$DIMTFAC
 40
1.0
  9
$DIMGAP
 40
0.09
  9
$LUNITS
 70
     2
  9
$LUPREC
 70
     4
  9
$SKETCHINC
 40
0.1
  9
$FILLETRAD
 40
0.0
  9
$AUNITS
 70
     0
  9
$AUPREC
 70
     0
  9
$MENU
  1
.
  9
$ELEVATION
 40
0.0
  9
$PELEVATION
 40
0.0
  9
$THICKNESS
 40
0.0
  9
$LIMCHECK
 70
     0
  9
$BLIPMODE
 70
     0
  9
$CHAMFERA
 40
0.0
  9
$CHAMFERB
 40
0.0
  9
$SKPOLY
 70
     0
  9
$TDCREATE
 40
2457011.5125921532
  9
$TDUPDATE
 40
2457011.5145468521
  9
$TDINDWG
 40
0.0019554861
  9
$TDUSRTIMER
 40
0.0019554861
  9
$USRTIMER
 70
     1
  9
$ANGBASE
 50
0.0
  9
$ANGDIR
 70
     0
  9
$PDMODE
 70
     0
  9
$PDSIZE
 40
0.0
  9
$PLINEWID
 40
0.0
  9
$COORDS
 70
     1
  9
$SPLFRAME
 70
     0
  9
$SPLINETYPE
 70
     6
  9
$SPLINESEGS
 70
     8
  9
$ATTDIA
 70
     1
  9
$ATTREQ
 70
     1
  9
$HANDLING
 70
     1
  9
$HANDSEED
  5
118
  9
$SURFTAB1
 70
     6
  9
$SURFTAB2
 70
     6
  9
$SURFTYPE
 70
     6
  9
$SURFU
 70
     6
  9
$SURFV
 70
     6
  9
$UCSNAME
  2

  9
$UCSORG
 10
0.0
 20
0.0
 30
0.0
  9
$UCSXDIR
 10
1.0
 20
0.0
 30
0.0
  9
$UCSYDIR
 10
0.0
 20
1.0
 30
0.0
  9
$PUCSNAME
  2

  9
$PUCSORG
 10
0.0
 20
0.0
 30
0.0
  9
$PUCSXDIR
 10
1.0
 20
0.0
 30
0.0
  9
$PUCSYDIR
 10
0.0
 20
1.0
 30
0.0
  9
$USERI1
 70
     0
  9
$USERI2
 70
     0
  9
$USERI3
 70
     0
  9
$USERI4
 70
     0
  9
$USERI5
 70
     0
  9
$USERR1
 40
0.0
  9
$USERR2
 40
0.0
  9
$USERR3
 40
0.0
  9
$USERR4
 40
0.0
  9
$USERR5
 40
0.0
  9
$WORLDVIEW
 70
     1
  9
$SHADEDGE
 70
     3
  9
$SHADEDIF
 70
    70
  9
$TILEMODE
 70
     1
  9
$MAXACTVP
 70
    64
  9
$PLIMCHECK
 70
     0
  9
$PEXTMIN
 10
1.0000000000000000E+020
 20
1.0000000000000000E+020
 30
1.0000000000000000E+020
  9
$PEXTMAX
 10
-1.0000000000000000E+020
 20
-1.0000000000000000E+020
 30
-1.0000000000000000E+020
  9
$PLIMMIN
 10
0.0
 20
0.0
  9
$PLIMMAX
 10
12.0
 20
9.0
  9
$UNITMODE
 70
     0
  9
$VISRETAIN
 70
     1
  9
$PLINEGEN
 70
     0
  9
$PSLTSCALE
 70
     1
  0
ENDSEC
  0
SECTION
  2
ENTITIES
  0
LINE
  5
76
  8
0
 39
3.0
 10
41.047288892895317
 20
58.01741360429547
 30
0.0
 11
47.2170641688149
 21
54.453792911972883
 31
0.0
  0
LINE
  5
7C
  8
0
 39
7.0
 10
35.253604335116442
 20
63.798622283160277
 30
0.0
 11
41.047288892895317
 21
58.01741360429547
 31
0.0
  0
LINE
  5
7D
  8
0
 39
9.0
 10
47.2170641688149
 20
54.453792911972883
 30
0.0
 11
56.732219067737027
 21
51.017442430101063
 31
0.0
  0
LINE
  5
7E
  8
0
 39
9.0
 10
56.732219067737027
 20
51.017442430101063
 30
0.0
 11
62.913231154847082
 21
69.304849385529607
 31
0.0
  0
LINE
  5
7F
  8
0
 39
7.0
 10
47.839165439109543
 20
74.162367281613385
 30
0.0
 11
35.253604335116442
 21
63.798622283160277
 31
0.0
  0
LINE
  5
80
  8
0
 39
11.0
 10
72.973660323727216
 20
64.816742232699724
 30
0.0
 11
62.882886579746319
 21
45.244436879817428
 31
0.0
  0
LINE
  5
81
  8
0
 39
11.0
 10
62.882886579746319
 20
45.244436879817428
 30
0.0
 11
73.047985217576027
 21
40.58020982081613
 31
0.0
  0
LINE
  5
82
  8
0
 39
10.0
 10
24.206937498693549
 20
61.553324751515788
 30
0.0
 11
31.495216197987091
 21
49.810222341594582
 31
0.0
  0
LINE
  5
83
  8
0
 39
5.0
 10
31.495216197987091
 20
49.810222341594582
 30
0.0
 11
40.959504046548567
 21
37.868171555428091
 31
0.0
  0
LINE
  5
84
  8
0
 39
9.0
 10
40.959504046548567
 20
37.868171555428091
 30
0.0
 11
50.983451652385916
 21
27.848219916814799
 31
0.0
  0
LINE
  5
85
  8
0
 39
11.0
 10
50.983451652385916
 20
27.848219916814799
 30
0.0
 11
61.132864181495677
 21
19.986658872726071
 31
0.0
  0
LINE
  5
86
  8
0
 39
9.0
 10
60.660654226654877
 20
7.7282418003840894
 30
0.0
 11
86.611592129189148
 21
49.719790179527443
 31
0.0
  0
LINE
  5
87
  8
0
 39
11.0
 10
61.132864181495677
 20
19.986658872726071
 30
0.0
 11
55.569947230330712
 21
10.99912454437789
 31
0.0
  0
LINE
  5
88
  8
0
 39
11.0
 10
73.047985217576027
 20
40.58020982081613
 30
0.0
 11
82.64818850794066
 21
54.216995334827089
 31
0.0
  0
LINE
  5
89
  8
0
 39
9.0
 10
40.419644260192918
 20
80.550047564419472
 30
0.0
 11
22.489034782492549
 21
64.880434511337782
 31
0.0
  0
LINE
  5
8A
  8
0
 39
9.0
 10
22.489034782492549
 20
64.880434511337782
 30
0.0
 11
8.2089684295424377
 21
55.86504058773702
 31
0.0
  0
LINE
  5
8B
  8
0
 39
10.0
 10
24.206937498693549
 20
61.553324751515788
 30
0.0
 11
11.859511554292681
 21
53.18188760177086
 31
0.0
  0
LINE
  5
9E
  8
0
 39
11.0
 10
82.64818850794066
 20
54.216995334827089
 30
0.0
 11
72.973660323727216
 21
64.816742232699724
 31
0.0
  0
LINE
  5
9F
  8
0
 39
9.0
 10
47.2170641688149
 20
54.453792911972883
 30
0.0
 11
53.905390179097203
 21
72.537972790165583
 31
0.0
  0
LINE
  5
A0
  8
0
 39
9.0
 10
53.905390179097203
 20
72.537972790165583
 30
0.0
 11
62.913231154847082
 21
69.304849385529607
 31
0.0
  0
LINE
  5
A1
  8
0
 39
7.0
 10
47.839165439109543
 20
74.162367281613385
 30
0.0
 11
53.145774755030672
 21
70.484092350433727
 31
0.0
  0
LINE
  5
A2
  8
0
 39
10.0
 10
31.495216197987091
 20
49.810222341594582
 30
0.0
 11
18.853798649285451
 21
41.023735943023397
 31
0.0
  0
LINE
  5
A3
  8
0
 39
10.0
 10
18.853798649285451
 20
41.023735943023397
 30
0.0
 11
11.859511554292681
 21
53.18188760177086
 31
0.0
  0
LINE
  5
A4
  8
0
 39
9.0
 10
40.959504046548567
 20
37.868171555428091
 30
0.0
 11
26.343288388106359
 21
26.04923903196055
 31
0.0
  0
LINE
  5
A5
  8
0
 39
11.0
 10
50.983451652385916
 20
27.848219916814799
 30
0.0
 11
44.271145999879501
 21
19.124497485343088
 31
0.0
  0
LINE
  5
A6
  8
0
 39
11.0
 10
44.271145999879501
 20
19.124497485343088
 30
0.0
 11
55.569947230330712
 21
10.99912454437789
 31
0.0
  0
LINE
  5
A7
  8
0
 39
9.0
 10
44.271145999879501
 20
19.124497485343088
 30
0.0
 11
39.316922057939337
 21
24.286717645625249
 31
0.0
  0
LINE
  5
A8
  8
0
 39
9.0
 10
39.316922057939337
 20
24.286717645625249
 30
0.0
 11
32.437038750563339
 21
17.012612808381672
 31
0.0
  0
LINE
  5
A9
  8
0
 39
9.0
 10
32.437038750563339
 20
17.012612808381672
 30
0.0
 11
26.343288388106359
 21
26.04923903196055
 31
0.0
  0
LINE
  5
AA
  8
0
 39
5.0
 10
24.49450324968252
 20
44.944338522505262
 30
0.0
 11
33.438690428598932
 21
31.786707601331202
 31
0.0
  0
LINE
  5
AB
  8
0
 39
9.0
 10
8.2089684295424377
 20
55.86504058773702
 30
0.0
 11
2.9438451379795501
 21
63.985189906165523
 31
0.0
  0
LINE
  5
AC
  8
0
 39
9.0
 10
22.489034782492549
 20
64.880434511337782
 30
0.0
 11
15.40290904028384
 21
73.487494746661554
 31
0.0
  0
LINE
  5
AD
  8
0
 39
9.0
 10
40.419644260192918
 20
80.550047564419472
 30
0.0
 11
33.95665051990423
 21
86.380399588226624
 31
0.0
  0
LINE
  5
AE
  8
0
 39
9.0
 10
33.95665051990423
 20
86.380399588226624
 30
0.0
 11
16.7684825036112
 21
71.828820672532729
 31
0.0
  0
LINE
  5
AF
  8
0
 39
9.0
 10
2.9438451379795501
 20
63.985189906165523
 30
0.0
 11
15.40290904028384
 21
73.487494746661554
 31
0.0
  0
LINE
  5
B0
  8
0
 39
9.0
 10
60.660654226654877
 20
7.7282418003840894
 30
0.0
 11
68.596738082828878
 21
1.984189990447017
 31
0.0
  0
LINE
  5
B1
  8
0
 39
9.0
 10
68.596738082828878
 20
1.984189990447017
 30
0.0
 11
94.445579525188592
 21
41.183037383805697
 31
0.0
  0
LINE
  5
B2
  8
0
 39
9.0
 10
94.445579525188592
 20
41.183037383805697
 30
0.0
 11
86.611592129189148
 21
49.719790179527443
 31
0.0
  0
LINE
  5
B9
  8
0
 39
7.0
 10
50.48634696941685
 20
63.293418574339732
 30
0.0
 11
42.798177787493273
 21
70.011300028431762
 31
0.0
  0
LINE
  5
BA
  8
0
 39
7.0
 10
41.047288892895317
 20
58.01741360429547
 30
0.0
 11
46.782671864901303
 21
66.529670236843103
 31
0.0
  0
3DFACE
  5
C3
  8
0
  6
CONTINUOUS
 10
35.253604335116442
 20
63.798622283160277
 30
0.0
 11
30.023369938726692
 21
59.619962219482431
 31
0.0
 12
34.741416717708368
 22
52.148798592233831
 32
0.0
 13
41.047288892895317
 23
58.01741360429547
 33
0.0
 70
     3
  0
3DFACE
  5
C4
  8
0
  6
CONTINUOUS
 10
41.047288892895317
 20
58.01741360429547
 30
0.0
 11
34.741416717708368
 21
52.148798592233831
 31
0.0
 12
41.043847151384732
 22
45.153315286770123
 32
0.0
 13
47.2170641688149
 23
54.453792911972883
 33
0.0
 70
     2
  0
3DFACE
  5
C5
  8
0
  6
CONTINUOUS
 10
44.250656945500943
 20
49.984647581463129
 30
0.0
 11
41.043847151384732
 21
45.153315286770123
 31
0.0
 12
51.678481963589917
 22
37.445172190198051
 32
0.0
 13
54.387892914670239
 23
44.721541510802133
 33
0.0
 70
     6
  0
3DFACE
  5
C6
  8
0
  6
CONTINUOUS
 10
47.2170641688149
 20
54.453792911972883
 30
0.0
 11
44.250656945500943
 21
49.984647581463129
 31
0.0
 12
54.387892914670239
 22
44.721541510802133
 32
0.0
 13
56.732219067737027
 23
51.017442430101063
 33
0.0
 70
     4
  0
ENDSEC
  0
EOF
